0	1313.0	427.0	423.0	463.0	101502
1	1305.0	402.0	407.0	496.0	101738
2	1263.0	402.0	431.0	430.0	101973
3	1255.0	401.0	445.0	409.0	102194
4	1261.0	404.0	432.0	425.0	102429
5	1234.0	387.0	418.0	429.0	102663
6	1259.0	399.0	415.0	445.0	102887
7	1263.0	393.0	432.0	438.0	103094
8	1247.0	426.0	418.0	403.0	103337
9	1200.0	429.0	382.0	389.0	103603
10	1235.0	414.0	392.0	429.0	103824
11	1186.0	397.0	400.0	389.0	104053
12	1182.0	402.0	373.0	407.0	104293
13	1187.0	418.0	384.0	385.0	104533
14	1180.0	381.0	380.0	419.0	104748
15	1172.0	391.0	361.0	420.0	104978
16	1170.0	379.0	376.0	415.0	105194
17	1183.0	391.0	371.0	421.0	105409
18	1129.0	369.0	373.0	387.0	105631
19	1137.0	376.0	358.0	403.0	105865
20	1116.0	377.0	353.0	386.0	106097
21	1116.0	332.0	400.0	384.0	106276
22	1115.0	374.0	346.0	395.0	106503
23	1127.0	376.0	371.0	380.0	106715
24	1107.0	349.0	353.0	405.0	106912
25	1085.0	374.0	331.0	380.0	107139
26	1087.0	353.0	366.0	368.0	107330
27	1079.0	363.0	358.0	358.0	107541
28	1075.0	393.0	331.0	351.0	107780
29	1097.0	362.0	358.0	377.0	107972
30	1071.0	361.0	355.0	355.0	108174
31	1056.0	349.0	323.0	384.0	108374
32	1077.0	349.0	339.0	389.0	108572
33	1070.0	331.0	365.0	374.0	108746
34	1039.0	357.0	323.0	359.0	108950
35	1029.0	338.0	345.0	346.0	109152
36	1044.0	350.0	331.0	363.0	109340
37	1011.0	355.0	329.0	327.0	109543
38	1026.0	312.0	357.0	357.0	109716
39	1023.0	330.0	348.0	345.0	109915
40	1009.0	322.0	333.0	354.0	110096
41	999.0	324.0	342.0	333.0	110284
42	988.0	313.0	352.0	323.0	110461
43	979.0	339.0	316.0	324.0	110673
44	999.0	341.0	322.0	336.0	110860
45	1011.0	327.0	331.0	353.0	111029
46	1006.0	340.0	318.0	348.0	111207
47	995.0	315.0	326.0	354.0	111375
48	976.0	308.0	319.0	349.0	111534
49	965.0	320.0	331.0	314.0	111704
50	982.0	340.0	302.0	340.0	111906
51	960.0	331.0	304.0	325.0	112112
52	974.0	340.0	293.0	341.0	112308
53	981.0	313.0	319.0	349.0	112480
54	968.0	315.0	336.0	317.0	112650
55	966.0	295.0	332.0	339.0	112802
56	941.0	333.0	324.0	284.0	112996
57	937.0	326.0	292.0	319.0	113180
58	938.0	292.0	313.0	333.0	113344
59	947.0	289.0	328.0	330.0	113489
60	941.0	327.0	298.0	316.0	113662
61	920.0	282.0	319.0	319.0	113814
62	931.0	302.0	311.0	318.0	113980
63	939.0	316.0	285.0	338.0	114162
64	1066.0	344.0	357.0	365.0	114354
65	1040.0	352.0	339.0	349.0	114549
66	1065.0	333.0	355.0	377.0	114718
67	1041.0	333.0	366.0	342.0	114896
68	1034.0	359.0	357.0	318.0	115089
69	1046.0	335.0	341.0	370.0	115270
70	1039.0	310.0	357.0	372.0	115419
71	1043.0	330.0	342.0	371.0	115593
72	1011.0	352.0	334.0	325.0	115805
73	1005.0	325.0	326.0	354.0	115983
74	1044.0	343.0	340.0	361.0	116160
75	1038.0	320.0	375.0	343.0	116288
76	997.0	337.0	334.0	326.0	116476
77	1012.0	344.0	339.0	329.0	116653
78	994.0	369.0	328.0	297.0	116859
79	989.0	305.0	339.0	345.0	117004
80	1006.0	332.0	321.0	353.0	117182
81	984.0	327.0	330.0	327.0	117342
82	998.0	349.0	329.0	320.0	117529
83	983.0	313.0	326.0	344.0	117688
84	986.0	326.0	336.0	324.0	117864
85	936.0	292.0	319.0	325.0	118011
86	968.0	333.0	308.0	327.0	118203
87	958.0	338.0	302.0	318.0	118389
88	974.0	326.0	309.0	339.0	118556
89	969.0	351.0	289.0	329.0	118756
90	954.0	351.0	291.0	312.0	118953
91	949.0	318.0	294.0	337.0	119121
92	948.0	306.0	320.0	322.0	119280
93	954.0	312.0	307.0	335.0	119447
94	946.0	306.0	316.0	324.0	119596
95	925.0	310.0	304.0	311.0	119770
96	935.0	294.0	332.0	309.0	119908
97	933.0	287.0	296.0	350.0	120058
98	965.0	323.0	310.0	332.0	120224
99	914.0	275.0	322.0	317.0	120359
100	910.0	276.0	305.0	329.0	120513
101	474.0	164.0	165.0	145.0	120611
102	1018.0	316.0	364.0	338.0	120758
103	1018.0	331.0	331.0	356.0	120930
104	1018.0	305.0	343.0	370.0	121069
105	993.0	343.0	323.0	327.0	121255
106	1011.0	305.0	350.0	356.0	121407
107	1008.0	323.0	349.0	336.0	121545
108	1001.0	329.0	311.0	361.0	121696
109	1010.0	313.0	337.0	360.0	121844
110	980.0	314.0	348.0	318.0	121998
111	962.0	345.0	312.0	305.0	122205
112	975.0	336.0	319.0	320.0	122386
113	952.0	313.0	309.0	330.0	122559
114	986.0	340.0	334.0	312.0	122718
115	962.0	311.0	341.0	310.0	122861
116	959.0	295.0	327.0	337.0	123007
117	952.0	309.0	322.0	321.0	123153
118	947.0	318.0	297.0	332.0	123315
119	980.0	308.0	340.0	332.0	123466
120	949.0	296.0	326.0	327.0	123610
