0	2480.0	802.0	848.0	830.0	103102
1	2462.0	852.0	809.0	801.0	103575
2	2383.0	771.0	797.0	815.0	104055
3	2377.0	802.0	798.0	777.0	104531
4	2371.0	789.0	765.0	817.0	104980
5	2332.0	780.0	775.0	777.0	105429
6	2321.0	755.0	731.0	835.0	105864
7	2272.0	731.0	760.0	781.0	106305
8	2257.0	754.0	736.0	767.0	106714
9	2236.0	729.0	747.0	760.0	107141
10	2202.0	703.0	733.0	766.0	107548
11	2185.0	708.0	731.0	746.0	107951
12	2164.0	690.0	691.0	783.0	108333
13	2152.0	721.0	706.0	725.0	108736
14	2132.0	682.0	706.0	744.0	109116
15	2094.0	690.0	681.0	723.0	109531
16	2090.0	700.0	671.0	719.0	109926
17	2064.0	668.0	667.0	729.0	110286
18	2009.0	653.0	697.0	659.0	110654
19	2050.0	678.0	710.0	662.0	110995
20	2009.0	659.0	659.0	691.0	111346
21	1937.0	667.0	649.0	621.0	111756
22	1969.0	677.0	639.0	653.0	112135
23	1939.0	626.0	614.0	699.0	112506
24	1926.0	650.0	654.0	622.0	112869
25	1948.0	668.0	623.0	657.0	113233
26	1905.0	620.0	644.0	641.0	113579
27	1903.0	632.0	618.0	653.0	113923
28	1885.0	624.0	621.0	640.0	114236
29	1898.0	630.0	598.0	670.0	114580
30	1835.0	605.0	588.0	642.0	114918
31	1846.0	589.0	613.0	644.0	115217
32	1842.0	609.0	636.0	597.0	115544
33	1820.0	603.0	595.0	622.0	115857
34	1780.0	584.0	552.0	644.0	116194
35	1762.0	575.0	610.0	577.0	116505
36	1750.0	587.0	591.0	572.0	116851
37	1756.0	585.0	556.0	615.0	117159
38	1728.0	577.0	550.0	601.0	117483
39	1709.0	569.0	574.0	566.0	117792
40	1748.0	565.0	601.0	582.0	118076
41	1730.0	586.0	575.0	569.0	118383
42	1699.0	565.0	535.0	599.0	118683
43	1691.0	548.0	505.0	638.0	118982
44	1675.0	572.0	515.0	588.0	119288
45	1676.0	563.0	558.0	555.0	119579
46	1646.0	532.0	537.0	577.0	119851
47	1652.0	554.0	525.0	573.0	120149
48	1648.0	522.0	573.0	553.0	120397
49	1633.0	535.0	531.0	567.0	120667
50	1605.0	529.0	521.0	555.0	120941
51	1616.0	517.0	506.0	593.0	121203
52	1592.0	543.0	513.0	536.0	121481
53	1578.0	551.0	482.0	545.0	121808
54	1563.0	517.0	504.0	542.0	122069
55	1559.0	486.0	537.0	536.0	122310
56	1540.0	506.0	525.0	509.0	122581
57	1551.0	571.0	478.0	502.0	122870
58	1545.0	504.0	513.0	528.0	123125
59	1535.0	515.0	492.0	528.0	123404
60	1499.0	481.0	490.0	528.0	123651
61	1528.0	521.0	495.0	512.0	123928
62	1502.0	487.0	496.0	519.0	124175
63	1526.0	485.0	510.0	531.0	124422
64	1496.0	492.0	505.0	499.0	124658
65	1490.0	485.0	508.0	497.0	124905
66	1475.0	475.0	507.0	493.0	125148
67	1481.0	486.0	489.0	506.0	125394
68	1494.0	470.0	492.0	532.0	125603
69	1471.0	474.0	504.0	493.0	125821
70	1463.0	483.0	469.0	511.0	126078
71	1482.0	479.0	482.0	521.0	126281
72	1424.0	463.0	492.0	469.0	126526
73	1480.0	502.0	482.0	496.0	126773
74	1400.0	469.0	441.0	490.0	127012
75	1447.0	478.0	467.0	502.0	127250
76	1418.0	415.0	507.0	496.0	127435
77	1442.0	460.0	490.0	492.0	127651
78	1403.0	477.0	440.0	486.0	127904
79	1386.0	467.0	479.0	440.0	128102
80	1423.0	471.0	455.0	497.0	128325
81	1382.0	485.0	459.0	438.0	128570
82	1411.0	456.0	453.0	502.0	128767
83	1372.0	465.0	434.0	473.0	128997
84	1379.0	437.0	483.0	459.0	129208
85	1368.0	446.0	433.0	489.0	129437
86	1356.0	434.0	448.0	474.0	129643
87	1393.0	455.0	468.0	470.0	129845
88	1355.0	430.0	443.0	482.0	130044
89	1368.0	452.0	467.0	449.0	130222
90	1376.0	440.0	423.0	513.0	130429
91	1372.0	444.0	438.0	490.0	130632
92	1359.0	456.0	437.0	466.0	130839
93	1384.0	456.0	439.0	489.0	131038
94	1367.0	469.0	420.0	478.0	131254
95	1356.0	453.0	453.0	450.0	131452
96	1299.0	446.0	432.0	421.0	131653
97	1347.0	433.0	455.0	459.0	131839
98	1305.0	438.0	453.0	414.0	132051
99	1318.0	430.0	450.0	438.0	132256
100	1273.0	396.0	425.0	452.0	132422
101	1280.0	458.0	398.0	424.0	132663
102	1293.0	432.0	420.0	441.0	132865
103	1309.0	444.0	432.0	433.0	133060
104	1260.0	402.0	432.0	426.0	133258
105	1308.0	424.0	419.0	465.0	133445
106	1290.0	424.0	457.0	409.0	133620
107	1252.0	403.0	461.0	388.0	133795
108	1242.0	421.0	407.0	414.0	134002
109	1277.0	428.0	432.0	417.0	134217
110	1240.0	435.0	391.0	414.0	134442
111	1251.0	442.0	400.0	409.0	134637
112	1221.0	390.0	404.0	427.0	134832
113	1219.0	404.0	392.0	423.0	135031
114	1246.0	420.0	403.0	423.0	135217
115	1279.0	428.0	420.0	431.0	135405
116	1240.0	409.0	387.0	444.0	135592
117	1252.0	420.0	428.0	404.0	135768
118	1216.0	425.0	419.0	372.0	135969
119	1231.0	404.0	439.0	388.0	136135
120	1220.0	389.0	421.0	410.0	136311
