0	764.0	242.0	255.0	267.0	100897
1	795.0	264.0	258.0	273.0	101074
2	812.0	273.0	261.0	278.0	101255
3	839.0	261.0	309.0	269.0	101401
4	848.0	298.0	278.0	272.0	101574
5	842.0	280.0	288.0	274.0	101736
6	842.0	286.0	259.0	297.0	101913
7	867.0	310.0	280.0	277.0	102086
8	836.0	262.0	267.0	307.0	102242
9	867.0	271.0	325.0	271.0	102387
10	886.0	288.0	297.0	301.0	102567
11	869.0	267.0	277.0	325.0	102731
12	871.0	285.0	272.0	314.0	102917
13	872.0	301.0	293.0	278.0	103108
14	881.0	278.0	296.0	307.0	103268
15	879.0	278.0	288.0	313.0	103422
16	881.0	297.0	279.0	305.0	103597
17	891.0	260.0	304.0	327.0	103735
18	894.0	313.0	286.0	295.0	103933
19	892.0	304.0	306.0	282.0	104107
20	905.0	299.0	302.0	304.0	104268
21	882.0	257.0	292.0	333.0	104419
22	881.0	286.0	293.0	302.0	104597
23	896.0	294.0	287.0	315.0	104749
24	922.0	292.0	308.0	322.0	104899
25	904.0	312.0	282.0	310.0	105087
26	879.0	267.0	300.0	312.0	105236
27	881.0	289.0	299.0	293.0	105409
28	868.0	292.0	309.0	267.0	105588
29	833.0	266.0	293.0	274.0	105755
30	881.0	291.0	286.0	304.0	105920
31	828.0	268.0	274.0	286.0	106084
32	840.0	297.0	256.0	287.0	106258
33	854.0	296.0	266.0	292.0	106430
34	848.0	277.0	288.0	283.0	106576
35	854.0	278.0	282.0	294.0	106721
36	834.0	284.0	277.0	273.0	106912
37	815.0	274.0	277.0	264.0	107072
38	846.0	292.0	251.0	303.0	107248
39	810.0	280.0	283.0	247.0	107399
40	876.0	294.0	265.0	317.0	107572
41	849.0	274.0	278.0	297.0	107735
42	860.0	278.0	287.0	295.0	107898
43	857.0	308.0	256.0	293.0	108101
44	871.0	285.0	263.0	323.0	108266
45	862.0	279.0	279.0	304.0	108422
46	846.0	283.0	283.0	280.0	108586
47	836.0	252.0	284.0	300.0	108727
48	841.0	270.0	284.0	287.0	108871
49	837.0	288.0	258.0	291.0	109054
50	807.0	282.0	264.0	261.0	109215
51	822.0	280.0	256.0	286.0	109393
52	798.0	276.0	239.0	283.0	109548
53	780.0	246.0	274.0	260.0	109684
54	793.0	264.0	263.0	266.0	109835
55	835.0	276.0	257.0	302.0	109998
56	819.0	268.0	282.0	269.0	110152
57	802.0	273.0	272.0	257.0	110293
58	797.0	249.0	267.0	281.0	110429
59	807.0	278.0	259.0	270.0	110600
60	826.0	263.0	304.0	259.0	110728
61	825.0	272.0	270.0	283.0	110877
62	779.0	250.0	274.0	255.0	111018
63	797.0	285.0	263.0	249.0	111187
64	750.0	217.0	261.0	272.0	111307
65	819.0	282.0	271.0	266.0	111463
66	802.0	258.0	252.0	292.0	111616
67	814.0	283.0	259.0	272.0	111772
68	795.0	243.0	276.0	276.0	111909
69	818.0	274.0	278.0	266.0	112066
70	823.0	270.0	259.0	294.0	112217
71	816.0	271.0	269.0	276.0	112364
72	791.0	245.0	264.0	282.0	112502
73	810.0	279.0	240.0	291.0	112674
74	750.0	235.0	270.0	245.0	112808
75	709.0	242.0	259.0	208.0	112922
76	709.0	235.0	236.0	238.0	113069
77	767.0	262.0	258.0	247.0	113216
78	788.0	253.0	269.0	266.0	113355
79	797.0	259.0	265.0	273.0	113490
80	729.0	242.0	235.0	252.0	113628
81	684.0	214.0	251.0	219.0	113758
82	707.0	242.0	235.0	230.0	113893
83	713.0	220.0	217.0	276.0	114015
84	756.0	258.0	258.0	240.0	114155
85	699.0	224.0	223.0	252.0	114282
86	701.0	215.0	255.0	231.0	114391
87	696.0	221.0	229.0	246.0	114512
88	689.0	243.0	230.0	216.0	114642
89	661.0	217.0	202.0	242.0	114762
90	738.0	261.0	239.0	238.0	114909
91	768.0	255.0	245.0	268.0	115057
92	752.0	269.0	232.0	251.0	115223
93	740.0	240.0	251.0	249.0	115367
94	741.0	256.0	240.0	245.0	115522
95	737.0	237.0	229.0	271.0	115650
96	738.0	238.0	258.0	242.0	115776
97	774.0	261.0	246.0	267.0	115922
98	737.0	259.0	249.0	229.0	116061
99	723.0	235.0	232.0	256.0	116201
100	710.0	234.0	227.0	249.0	116328
101	631.0	177.0	205.0	249.0	116425
102	658.0	218.0	238.0	202.0	116547
103	641.0	212.0	216.0	213.0	116670
104	629.0	237.0	199.0	193.0	116827
105	625.0	212.0	223.0	190.0	116935
106	606.0	208.0	195.0	203.0	117063
107	614.0	207.0	189.0	218.0	117197
108	638.0	188.0	214.0	236.0	117301
109	710.0	241.0	209.0	260.0	117448
110	719.0	244.0	250.0	225.0	117576
111	702.0	231.0	221.0	250.0	117721
112	677.0	232.0	231.0	214.0	117862
113	649.0	230.0	212.0	207.0	117979
114	638.0	208.0	231.0	199.0	118073
115	619.0	230.0	187.0	202.0	118208
116	622.0	216.0	204.0	202.0	118320
117	578.0	170.0	215.0	193.0	118402
118	636.0	213.0	200.0	223.0	118525
119	594.0	192.0	188.0	214.0	118628
120	608.0	207.0	217.0	184.0	118744
